<?xml version="1.0" encoding="UTF-8"?>
<svg width="118px" height="118px" viewBox="0 0 118 118" version="1.1" xmlns="http://www.w3.org/2000/svg" xmlns:xlink="http://www.w3.org/1999/xlink">
    <!-- Generator: sketchtool 53.2 (72643) - https://sketchapp.com -->
    <title>0D98162F-9EBE-4807-8A3C-0EDB46767086</title>
    <desc>Created with sketchtool.</desc>
    <g id="RI" stroke="none" stroke-width="1" fill="none" fill-rule="evenodd">
        <g id="RI---Homepage" transform="translate(-424.000000, -2410.000000)" fill="#000000">
            <g id="Dila" transform="translate(163.000000, 1234.000000)">
                <g id="Img-3" transform="translate(30.000000, 886.000000)">
                    <g id="Lupa" transform="translate(231.000000, 290.000000)">
                        <path d="M78.4887969,73.2244895 L116.914711,111.63286 C118.352545,113.070038 118.370987,115.448656 116.914606,116.904373 C115.44807,118.370238 113.097009,118.360136 111.640686,116.904477 L73.2152645,78.4965988 C65.4650763,85.0494349 55.4438901,89 44.5,89 C19.9233286,89 0,69.0766714 0,44.5 C0,19.9233286 19.9233286,0 44.5,0 C69.0766714,0 89,19.9233286 89,44.5 C89,55.4482327 85.0462991,65.4730292 78.4887969,73.2244895 Z M8,45 C8,24.5654643 24.5654643,8 45,8 C65.4345357,8 82,24.5654643 82,45 C82,65.4345357 65.4345357,82 45,82 C24.5654643,82 8,65.4345357 8,45 L8,45 Z" id="Rectangle-403"></path>
                        <path d="M41.3333333,26.6757354 C41.3333333,24.6711235 42.9749559,23 45,23 C47.0391623,23 48.6666667,24.6456828 48.6666667,26.6757354 L48.6666667,41.3333333 L63.3242646,41.3333333 C65.3288765,41.3333333 67,42.9749559 67,45 C67,47.0391623 65.3543172,48.6666667 63.3242646,48.6666667 L48.6666667,48.6666667 L48.6666667,63.3242646 C48.6666667,65.3288765 47.0250441,67 45,67 C42.9608377,67 41.3333333,65.3543172 41.3333333,63.3242646 L41.3333333,48.6666667 L26.6757354,48.6666667 C24.6711235,48.6666667 23,47.0250441 23,45 C23,42.9608377 24.6456828,41.3333333 26.6757354,41.3333333 L41.3333333,41.3333333 L41.3333333,26.6757354 Z" id="Rectangle-412"></path>
                    </g>
                </g>
            </g>
        </g>
    </g>
</svg>